# function works

    Code
      get_filtered_source_counts(normal_qsip)
    Output
      # A tibble: 346 x 3
         feature_id labeled_sources unlabeled_sources
         <chr>                <int>             <int>
       1 ASV_1                    3                 8
       2 ASV_10                   3                 8
       3 ASV_100                  1                 7
       4 ASV_101                  2                 5
       5 ASV_102                  2                 8
       6 ASV_103                  2                 8
       7 ASV_1031                 1                NA
       8 ASV_104                  3                 5
       9 ASV_1044                NA                 1
      10 ASV_105                  2                 5
      # i 336 more rows
