Growth Workflow • qSIP2
…
The remaining columns use the resampled EAF data to determine which portion of the N_total_it copies correspond to those taking up the substrate and those that remain unlabeled.

N_light_it comes from equation 3 of Koch, 20183, and is the proportion of N_total_it that isn’t labeled.

N_heavy_it is the proportion of N_total_it that is labeled, and is roughly \(N_{TOTALit} * EAF\)

bi is the per-unit-of-time birth rate, di is the death rate

Summarizing Growth Data

We can summarize the growth data at a specified confidence with the summarize_growth_values() function. This function will calculate the mean, sd and confidence intervals for the birth and death rates, as well as EAF.

summarize_growth_values(q, confidence = 0.9) |> arrange(feature_id)
#> Confidence level = 0.9
#> # A tibble: 351 × 29
#>    feature_id timepoint1 timepoint2  N_total_i0 N_total_it N_light_it      r_net
#>    <chr>           <dbl>      <dbl>       <dbl>      <dbl>      <dbl>      <dbl>
#>  1 taxon_1             0         10 1595472105. 148586025. 133245500.    -1.45e9
#>  2 taxon_10            0         10    2793486.   1058203.    824055.    -1.74e6
#>  3 taxon_100           0         10    4698016.   1933443.   1200882.    -2.76e6
#>  4 taxon_101           0         10    4359459.   1617996.    851569.    -2.74e6
#>  5 taxon_102           0         10   45813796.   6260993.   6014551.    -3.96e7
#>  6 taxon_103           0         10    4639329.    635123.    610699.    -4.00e6
#>  7 taxon_104           0         10   35390036.   6306709.   5928829.    -2.91e7
#>  8 taxon_105           0         10  381417581.  64847518.  61168473.    -3.17e8
#>  9 taxon_106           0         10    8761701.   1541086.   1469288.    -7.22e6
#> 10 taxon_107           0         10    3724648.    338098.    330391.    -3.39e6
#> # ℹ 341 more rows
#> # ℹ 22 more variables: observed_bi <dbl>, observed_di <dbl>, observed_ri <dbl>,
#> #   successes <int>, resampled_N_mean <dbl>, resampled_rnet_mean <dbl>,
#> #   resampled_bi_mean <dbl>, resampled_bi_sd <dbl>, resampled_bi_lower <dbl>,
#> #   resampled_bi_upper <dbl>, resampled_di_mean <dbl>, resampled_di_sd <dbl>,
#> #   resampled_di_lower <dbl>, resampled_di_upper <dbl>,
#> #   resampled_ri_mean <dbl>, resampled_ri_sd <dbl>, resampled_ri_lower <dbl>, …
…
