…
### Dataframe of resampled WADs

If you want the data itself, you can access it with the
[`get_resample_data()`](https://jeffkimbrel.github.io/qSIP2/reference/get_resample_data.md)
function and appropriate arguments. Note, if you set `pivot = TRUE` the
dataframe can be quite large and take a while to assemble/display.

``` r
get_resample_data(q)
#> # A tibble: 74,000 × 13
#>    feature_id resample unlabeled_1 unlabeled_2 unlabeled_3 unlabeled_4
#>    <chr>         <int>       <dbl>       <dbl>       <dbl>       <dbl>
#>  1 ASV_1             1        1.70        1.70        1.71        1.70
#>  2 ASV_10            1        1.71        1.71        1.71        1.72
#>  3 ASV_104           1        1.71        1.71        1.71        1.71
#>  4 ASV_108           1        1.72        1.71        1.72        1.72
#>  5 ASV_11            1        1.72        1.71        1.71        1.72
#>  6 ASV_112           1        1.71        1.71        1.71        1.71
#>  7 ASV_114           1        1.71        1.71        1.72        1.72
#>  8 ASV_119           1        1.72        1.71        1.71        1.72
#>  9 ASV_12            1        1.71        1.71        1.71        1.72
#> 10 ASV_13            1        1.71        1.71        1.71        1.71
#> # ℹ 73,990 more rows
#> # ℹ 7 more variables: unlabeled_5 <dbl>, unlabeled_6 <dbl>, unlabeled_7 <dbl>,
#> #   unlabeled_8 <dbl>, labeled_1 <dbl>, labeled_2 <dbl>, labeled_3 <dbl>
```
…
